[{"page":1,"pages":2,"per_page":50,"total":62,"sourceid":"2","sourcename":"World Development Indicators","lastupdated":"2022-07-20"},[{"indicator":{"id":"NY.GDP.MKTP.CD","value":"GDP (current US$)"},"country":{"id":"SB","value":"Solomon Islands"},"countryiso3code":"SLB","date":"2021","value":1645213881.62016,"unit":"","obs_status":"","decimal":0},{"indicator":{"id":"NY.GDP.MKTP.CD","value":"GDP (current US$)"},"country":{"id":"SB","value":"Solomon Islands"},"countryiso3code":"SLB","date":"2020","value":1545888426.23031,"unit":"","obs_status":"","decimal":0},{"indicator":{"id":"NY.GDP.MKTP.CD","value":"GDP (current US$)"},"country":{"id":"SB","value":"Solomon Islands"},"countryiso3code":"SLB","date":"2019","value":1570093229.25588,"unit":"","obs_status":"","decimal":0},{"indicator":{"id":"NY.GDP.MKTP.CD","value":"GDP (current US$)"},"country":{"id":"SB","value":"Solomon Islands"},"countryiso3code":"SLB","date":"2018","value":1574622018.23326,"unit":"","obs_status":"","decimal":0},{"indicator":{"id":"NY.GDP.MKTP.CD","value":"GDP (current US$)"},"country":{"id":"SB","value":"Solomon Islands"},"countryiso3code":"SLB","date":"2017","value":1483793468.06299,"unit":"","obs_status":"","decimal":0},{"indicator":{"id":"NY.GDP.MKTP.CD","value":"GDP (current US$)"},"country":{"id":"SB","value":"Solomon Islands"},"countryiso3code":"SLB","date":"2016","value":1378543909.3128,"unit":"","obs_status":"","decimal":0},{"indicator":{"id":"NY.GDP.MKTP.CD","value":"GDP (current US$)"},"country":{"id":"SB","value":"Solomon Islands"},"countryiso3code":"SLB","date":"2015","value":1307082934.28683,"unit":"","obs_status":"","decimal":0},{"indicator":{"id":"NY.GDP.MKTP.CD","value":"GDP (current US$)"},"country":{"id":"SB","value":"Solomon Islands"},"countryiso3code":"SLB","date":"2014","value":1335584911.8002,"unit":"","obs_status":"","decimal":0},{"indicator":{"id":"NY.GDP.MKTP.CD","value":"GDP (current US$)"},"country":{"id":"SB","value":"Solomon Islands"},"countryiso3code":"SLB","date":"2013","value":1284763287.27352,"unit":"","obs_status":"","decimal":0},{"indicator":{"id":"NY.GDP.MKTP.CD","value":"GDP (current US$)"},"country":{"id":"SB","value":"Solomon Islands"},"countryiso3code":"SLB","date":"2012","value":1191045573.19991,"unit":"","obs_status":"","decimal":0},{"indicator":{"id":"NY.GDP.MKTP.CD","value":"GDP (current US$)"},"country":{"id":"SB","value":"Solomon Islands"},"countryiso3code":"SLB","date":"2011","value":1049889691.54463,"unit":"","obs_status":"","decimal":0},{"indicator":{"id":"NY.GDP.MKTP.CD","value":"GDP (current US$)"},"country":{"id":"SB","value":"Solomon Islands"},"countryiso3code":"SLB","date":"2010","value":846767635.935272,"unit":"","obs_status":"","decimal":0},{"indicator":{"id":"NY.GDP.MKTP.CD","value":"GDP (current US$)"},"country":{"id":"SB","value":"Solomon Islands"},"countryiso3code":"SLB","date":"2009","value":735997355.679702,"unit":"","obs_status":"","decimal":0},{"indicator":{"id":"NY.GDP.MKTP.CD","value":"GDP (current US$)"},"country":{"id":"SB","value":"Solomon Islands"},"countryiso3code":"SLB","date":"2008","value":699203616.463816,"unit":"","obs_status":"","decimal":0},{"indicator":{"id":"NY.GDP.MKTP.CD","value":"GDP (current US$)"},"country":{"id":"SB","value":"Solomon Islands"},"countryiso3code":"SLB","date":"2007","value":620211238.891793,"unit":"","obs_status":"","decimal":0},{"indicator":{"id":"NY.GDP.MKTP.CD","value":"GDP (current US$)"},"country":{"id":"SB","value":"Solomon Islands"},"countryiso3code":"SLB","date":"2006","value":538614679.019646,"unit":"","obs_status":"","decimal":0},{"indicator":{"id":"NY.GDP.MKTP.CD","value":"GDP (current US$)"},"country":{"id":"SB","value":"Solomon Islands"},"countryiso3code":"SLB","date":"2005","value":476836691.058314,"unit":"","obs_status":"","decimal":0},{"indicator":{"id":"NY.GDP.MKTP.CD","value":"GDP (current US$)"},"country":{"id":"SB","value":"Solomon Islands"},"countryiso3code":"SLB","date":"2004","value":397557524.015659,"unit":"","obs_status":"","decimal":0},{"indicator":{"id":"NY.GDP.MKTP.CD","value":"GDP (current US$)"},"country":{"id":"SB","value":"Solomon Islands"},"countryiso3code":"SLB","date":"2003","value":352531728.373679,"unit":"","obs_status":"","decimal":0},{"indicator":{"id":"NY.GDP.MKTP.CD","value":"GDP (current US$)"},"country":{"id":"SB","value":"Solomon Islands"},"countryiso3code":"SLB","date":"2002","value":346405301.683262,"unit":"","obs_status":"","decimal":0},{"indicator":{"id":"NY.GDP.MKTP.CD","value":"GDP (current US$)"},"country":{"id":"SB","value":"Solomon Islands"},"countryiso3code":"SLB","date":"2001","value":409507389.162562,"unit":"","obs_status":"","decimal":0},{"indicator":{"id":"NY.GDP.MKTP.CD","value":"GDP (current US$)"},"country":{"id":"SB","value":"Solomon Islands"},"countryiso3code":"SLB","date":"2000","value":419845231.77897,"unit":"","obs_status":"","decimal":0},{"indicator":{"id":"NY.GDP.MKTP.CD","value":"GDP (current US$)"},"country":{"id":"SB","value":"Solomon Islands"},"countryiso3code":"SLB","date":"1999","value":488028750.955954,"unit":"","obs_status":"","decimal":0},{"indicator":{"id":"NY.GDP.MKTP.CD","value":"GDP (current US$)"},"country":{"id":"SB","value":"Solomon Islands"},"countryiso3code":"SLB","date":"1998","value":457584496.220616,"unit":"","obs_status":"","decimal":0},{"indicator":{"id":"NY.GDP.MKTP.CD","value":"GDP (current US$)"},"country":{"id":"SB","value":"Solomon Islands"},"countryiso3code":"SLB","date":"1997","value":526559955.87721,"unit":"","obs_status":"","decimal":0},{"indicator":{"id":"NY.GDP.MKTP.CD","value":"GDP (current US$)"},"country":{"id":"SB","value":"Solomon Islands"},"countryiso3code":"SLB","date":"1996","value":510580417.227456,"unit":"","obs_status":"","decimal":0},{"indicator":{"id":"NY.GDP.MKTP.CD","value":"GDP (current US$)"},"country":{"id":"SB","value":"Solomon Islands"},"countryiso3code":"SLB","date":"1995","value":469443201.503274,"unit":"","obs_status":"","decimal":0},{"indicator":{"id":"NY.GDP.MKTP.CD","value":"GDP (current US$)"},"country":{"id":"SB","value":"Solomon Islands"},"countryiso3code":"SLB","date":"1994","value":402831864.859938,"unit":"","obs_status":"","decimal":0},{"indicator":{"id":"NY.GDP.MKTP.CD","value":"GDP (current US$)"},"country":{"id":"SB","value":"Solomon Islands"},"countryiso3code":"SLB","date":"1993","value":300749474.542774,"unit":"","obs_status":"","decimal":0},{"indicator":{"id":"NY.GDP.MKTP.CD","value":"GDP (current US$)"},"country":{"id":"SB","value":"Solomon Islands"},"countryiso3code":"SLB","date":"1992","value":269034595.812985,"unit":"","obs_status":"","decimal":0},{"indicator":{"id":"NY.GDP.MKTP.CD","value":"GDP (current US$)"},"country":{"id":"SB","value":"Solomon Islands"},"countryiso3code":"SLB","date":"1991","value":227536282.599086,"unit":"","obs_status":"","decimal":0},{"indicator":{"id":"NY.GDP.MKTP.CD","value":"GDP (current US$)"},"country":{"id":"SB","value":"Solomon Islands"},"countryiso3code":"SLB","date":"1990","value":214877638.378336,"unit":"","obs_status":"","decimal":0},{"indicator":{"id":"NY.GDP.MKTP.CD","value":"GDP (current US$)"},"country":{"id":"SB","value":"Solomon Islands"},"countryiso3code":"SLB","date":"1989","value":172882435.805604,"unit":"","obs_status":"","decimal":0},{"indicator":{"id":"NY.GDP.MKTP.CD","value":"GDP (current US$)"},"country":{"id":"SB","value":"Solomon Islands"},"countryiso3code":"SLB","date":"1988","value":176494422.137054,"unit":"","obs_status":"","decimal":0},{"indicator":{"id":"NY.GDP.MKTP.CD","value":"GDP (current US$)"},"country":{"id":"SB","value":"Solomon Islands"},"countryiso3code":"SLB","date":"1987","value":155128568.049167,"unit":"","obs_status":"","decimal":0},{"indicator":{"id":"NY.GDP.MKTP.CD","value":"GDP (current US$)"},"country":{"id":"SB","value":"Solomon Islands"},"countryiso3code":"SLB","date":"1986","value":147620047.544946,"unit":"","obs_status":"","decimal":0},{"indicator":{"id":"NY.GDP.MKTP.CD","value":"GDP (current US$)"},"country":{"id":"SB","value":"Solomon Islands"},"countryiso3code":"SLB","date":"1985","value":165524980.920416,"unit":"","obs_status":"","decimal":0},{"indicator":{"id":"NY.GDP.MKTP.CD","value":"GDP (current US$)"},"country":{"id":"SB","value":"Solomon Islands"},"countryiso3code":"SLB","date":"1984","value":181570454.320107,"unit":"","obs_status":"","decimal":0},{"indicator":{"id":"NY.GDP.MKTP.CD","value":"GDP (current US$)"},"country":{"id":"SB","value":"Solomon Islands"},"countryiso3code":"SLB","date":"1983","value":181220349.801554,"unit":"","obs_status":"","decimal":0},{"indicator":{"id":"NY.GDP.MKTP.CD","value":"GDP (current US$)"},"country":{"id":"SB","value":"Solomon Islands"},"countryiso3code":"SLB","date":"1982","value":192901942.941136,"unit":"","obs_status":"","decimal":0},{"indicator":{"id":"NY.GDP.MKTP.CD","value":"GDP (current US$)"},"country":{"id":"SB","value":"Solomon Islands"},"countryiso3code":"SLB","date":"1981","value":193750476.462092,"unit":"","obs_status":"","decimal":0},{"indicator":{"id":"NY.GDP.MKTP.CD","value":"GDP (current US$)"},"country":{"id":"SB","value":"Solomon Islands"},"countryiso3code":"SLB","date":"1980","value":182852054.18211,"unit":"","obs_status":"","decimal":0},{"indicator":{"id":"NY.GDP.MKTP.CD","value":"GDP (current US$)"},"country":{"id":"SB","value":"Solomon Islands"},"countryiso3code":"SLB","date":"1979","value":151270207.852194,"unit":"","obs_status":"","decimal":0},{"indicator":{"id":"NY.GDP.MKTP.CD","value":"GDP (current US$)"},"country":{"id":"SB","value":"Solomon Islands"},"countryiso3code":"SLB","date":"1978","value":111022089.96223,"unit":"","obs_status":"","decimal":0},{"indicator":{"id":"NY.GDP.MKTP.CD","value":"GDP (current US$)"},"country":{"id":"SB","value":"Solomon Islands"},"countryiso3code":"SLB","date":"1977","value":93147039.2548237,"unit":"","obs_status":"","decimal":0},{"indicator":{"id":"NY.GDP.MKTP.CD","value":"GDP (current US$)"},"country":{"id":"SB","value":"Solomon Islands"},"countryiso3code":"SLB","date":"1976","value":83099107.9066357,"unit":"","obs_status":"","decimal":0},{"indicator":{"id":"NY.GDP.MKTP.CD","value":"GDP (current US$)"},"country":{"id":"SB","value":"Solomon Islands"},"countryiso3code":"SLB","date":"1975","value":74617096.4785967,"unit":"","obs_status":"","decimal":0},{"indicator":{"id":"NY.GDP.MKTP.CD","value":"GDP (current US$)"},"country":{"id":"SB","value":"Solomon Islands"},"countryiso3code":"SLB","date":"1974","value":84539332.282562,"unit":"","obs_status":"","decimal":0},{"indicator":{"id":"NY.GDP.MKTP.CD","value":"GDP (current US$)"},"country":{"id":"SB","value":"Solomon Islands"},"countryiso3code":"SLB","date":"1973","value":55272108.8435374,"unit":"","obs_status":"","decimal":0},{"indicator":{"id":"NY.GDP.MKTP.CD","value":"GDP (current US$)"},"country":{"id":"SB","value":"Solomon Islands"},"countryiso3code":"SLB","date":"1972","value":40606712.050639,"unit":"","obs_status":"","decimal":0}]]